material Baldosa
{
	technique
	{
		pass 
		{
			cull_hardware anticlockwise
			cull_software front
			vertex_program_ref SilhouetteVS
            {
				param_named_auto ViewProjectionMatrix worldviewproj_matrix
				param_named Thickness float 0.5
				param_named_auto Time sintime_0_x 1
            }

			fragment_program_ref SilhouettePS
			{
				param_named borderColor float4 1 1 1 1
			}
		}
		pass
		{
			ambient 0.658824 0 0 1
			diffuse 0.658824 0 0 1
			specular 0 0 0 1 10
		}
		

	}

}